Number of coins 5 required;Number of coins 2 required;Number of coins 1 required;Number of coins 0.5 required;Number of coins 0.2 required;Number of coins 0.1 required;Number of coins 0.05 required;
0;0;0;0;0;0;247;
0;0;0;0;0;1;245;
0;0;0;0;0;2;243;
0;0;0;0;0;3;241;
0;0;0;0;0;4;239;
0;0;0;0;0;5;237;
0;0;0;0;0;6;235;
0;0;0;0;0;7;233;
0;0;0;0;0;8;231;
0;0;0;0;0;9;229;
0;0;0;0;0;10;227;
0;0;0;0;0;11;225;
0;0;0;0;0;12;223;
0;0;0;0;0;13;221;
0;0;0;0;0;14;219;
0;0;0;0;0;15;217;
0;0;0;0;0;16;215;
0;0;0;0;0;17;213;
0;0;0;0;0;18;211;
0;0;0;0;0;19;209;
0;0;0;0;0;20;207;
0;0;0;0;0;21;205;
0;0;0;0;0;22;203;
0;0;0;0;0;23;201;
0;0;0;0;0;24;199;
0;0;0;0;0;25;197;
0;0;0;0;0;26;195;
0;0;0;0;0;27;193;
0;0;0;0;0;28;191;
0;0;0;0;0;29;189;
0;0;0;0;0;30;187;
0;0;0;0;0;31;185;
0;0;0;0;0;32;183;
0;0;0;0;0;33;181;
0;0;0;0;0;34;179;
0;0;0;0;0;35;177;
0;0;0;0;0;36;175;
0;0;0;0;0;37;173;
0;0;0;0;0;38;171;
0;0;0;0;0;39;169;
0;0;0;0;0;40;167;
0;0;0;0;0;41;165;
0;0;0;0;0;42;163;
0;0;0;0;0;43;161;
0;0;0;0;0;44;159;
0;0;0;0;0;45;157;
0;0;0;0;0;46;155;
0;0;0;0;0;47;153;
0;0;0;0;0;48;151;
0;0;0;0;0;49;149;
0;0;0;0;0;50;147;
0;0;0;0;0;51;145;
0;0;0;0;0;52;143;
0;0;0;0;0;53;141;
0;0;0;0;0;54;139;
0;0;0;0;0;55;137;
0;0;0;0;0;56;135;
0;0;0;0;0;57;133;
0;0;0;0;0;58;131;
0;0;0;0;0;59;129;
0;0;0;0;0;60;127;
0;0;0;0;0;61;125;
0;0;0;0;0;62;123;
0;0;0;0;0;63;121;
0;0;0;0;0;64;119;
0;0;0;0;0;65;117;
0;0;0;0;0;66;115;
0;0;0;0;0;67;113;
0;0;0;0;0;68;111;
0;0;0;0;0;69;109;
0;0;0;0;0;70;107;
0;0;0;0;0;71;105;
0;0;0;0;0;72;103;
0;0;0;0;0;73;101;
0;0;0;0;0;74;99;
0;0;0;0;0;75;97;
0;0;0;0;0;76;95;
0;0;0;0;0;77;93;
0;0;0;0;0;78;91;
0;0;0;0;0;79;89;
0;0;0;0;0;80;87;
0;0;0;0;0;81;85;
0;0;0;0;0;82;83;
0;0;0;0;0;83;81;
0;0;0;0;0;84;79;
0;0;0;0;0;85;77;
0;0;0;0;0;86;75;
0;0;0;0;0;87;73;
0;0;0;0;0;88;71;
0;0;0;0;0;89;69;
0;0;0;0;0;90;67;
0;0;0;0;0;91;65;
0;0;0;0;0;92;63;
0;0;0;0;0;93;61;
0;0;0;0;0;94;59;
0;0;0;0;0;95;57;
0;0;0;0;0;96;55;
0;0;0;0;0;97;53;
0;0;0;0;0;98;51;
0;0;0;0;0;99;49;
0;0;0;0;0;100;47;
0;0;0;0;0;101;45;
0;0;0;0;0;102;43;
0;0;0;0;0;103;41;
0;0;0;0;0;104;39;
0;0;0;0;0;105;37;
0;0;0;0;0;106;35;
0;0;0;0;0;107;33;
0;0;0;0;0;108;31;
0;0;0;0;0;109;29;
0;0;0;0;0;110;27;
0;0;0;0;0;111;25;
0;0;0;0;0;112;23;
0;0;0;0;0;113;21;
0;0;0;0;0;114;19;
0;0;0;0;0;115;17;
0;0;0;0;0;116;15;
0;0;0;0;0;117;13;
0;0;0;0;0;118;11;
0;0;0;0;0;119;9;
0;0;0;0;0;120;7;
0;0;0;0;0;121;5;
0;0;0;0;0;122;3;
0;0;0;0;0;123;1;
